<soap:Envelope xmlns:soap="http://schemas.xmlsoap.org/soap/envelope/">
   <soap:Body>
      <OrderViewRS Version="3.001" PrimaryLangID="en" xmlns="http://www.iata.org/IATA/EDIST">
         <Document/>
         <Party>
            <Sender>
               <TravelAgencySender>
                  <Name>AGENCYNAME</Name>
                  <Contacts>
                     <Contact>
                        <EmailContact>
                           <Address>AGENCYMAIL@XXX.COM</Address>
                        </EmailContact>
                        <PhoneContact>
                           <Application>MOBILE</Application>
                           <Number>+624545242</Number>
                        </PhoneContact>
                        <Name>
                           <Surname>PEPEPEREZ</Surname>
                        </Name>
                     </Contact>
                  </Contacts>
                  <IATA_Number>XXXXXXXX</IATA_Number>
                  <AgencyID>XXXXXXXX</AgencyID>
               </TravelAgencySender>
            </Sender>
         </Party>
         <Success/>
         <Response>
            <OrderViewProcessing>
               <MarketingMessages>
                  <MarketMessage>
                     <Text>If you have purchased additional services, please contact with Iberia in order to apply for a refund</Text>
                  </MarketMessage>
               </MarketingMessages>
            </OrderViewProcessing>
            <Passengers>
               <Passenger ObjectKey="ADULT_08">
                  <PTC>ADT</PTC>
                  <Age>
                     <BirthDate>1970-01-01</BirthDate>
                  </Age>
                  <Name>
                     <Surname>Apellidoeight</Surname>
                     <Given>Adulto</Given>
                     <Title>MR</Title>
                  </Name>
                  <Contacts>
                     <Contact>
                        <EmailContact>
                           <Address>foo@bar.com</Address>
                        </EmailContact>
                        <PhoneContact>
                           <Number>666666666</Number>
                        </PhoneContact>
                     </Contact>
                  </Contacts>
                  <PassengerIDInfo>
                     <FOID>
                        <Type>NI</Type>
                        <ID>12345678Z</ID>
                     </FOID>
                  </PassengerIDInfo>
                  <AdditionalRoles PrimaryContactInd="true"/>
               </Passenger>
               <Passenger ObjectKey="ADULT_05">
                  <PTC>ADT</PTC>
                  <Age>
                     <BirthDate>1970-01-01</BirthDate>
                  </Age>
                  <Name>
                     <Surname>Apellidofive</Surname>
                     <Given>Adulto</Given>
                     <Title>MR</Title>
                  </Name>
                  <Contacts>
                     <Contact>
                        <EmailContact>
                           <Address>foo@bar.com</Address>
                        </EmailContact>
                        <PhoneContact>
                           <Number>666666666</Number>
                        </PhoneContact>
                     </Contact>
                  </Contacts>
                  <PassengerIDInfo>
                     <FOID>
                        <Type>NI</Type>
                        <ID>12345678Z</ID>
                     </FOID>
                  </PassengerIDInfo>
                  <AdditionalRoles PrimaryContactInd="true"/>
               </Passenger>
               <Passenger ObjectKey="ADULT_04">
                  <PTC>ADT</PTC>
                  <Age>
                     <BirthDate>1970-01-01</BirthDate>
                  </Age>
                  <Name>
                     <Surname>Apellidofour</Surname>
                     <Given>Adulto</Given>
                     <Title>MR</Title>
                  </Name>
                  <Contacts>
                     <Contact>
                        <EmailContact>
                           <Address>foo@bar.com</Address>
                        </EmailContact>
                        <PhoneContact>
                           <Number>666666666</Number>
                        </PhoneContact>
                     </Contact>
                  </Contacts>
                  <PassengerIDInfo>
                     <FOID>
                        <Type>NI</Type>
                        <ID>12345678Z</ID>
                     </FOID>
                  </PassengerIDInfo>
                  <AdditionalRoles PrimaryContactInd="true"/>
               </Passenger>
               <Passenger ObjectKey="ADULT_07">
                  <PTC>ADT</PTC>
                  <Age>
                     <BirthDate>1970-01-01</BirthDate>
                  </Age>
                  <Name>
                     <Surname>Apellidoseven</Surname>
                     <Given>Adulto</Given>
                     <Title>MR</Title>
                  </Name>
                  <Contacts>
                     <Contact>
                        <EmailContact>
                           <Address>foo@bar.com</Address>
                        </EmailContact>
                        <PhoneContact>
                           <Number>666666666</Number>
                        </PhoneContact>
                     </Contact>
                  </Contacts>
                  <PassengerIDInfo>
                     <FOID>
                        <Type>NI</Type>
                        <ID>12345678Z</ID>
                     </FOID>
                  </PassengerIDInfo>
                  <AdditionalRoles PrimaryContactInd="true"/>
               </Passenger>
               <Passenger ObjectKey="ADULT_06">
                  <PTC>ADT</PTC>
                  <Age>
                     <BirthDate>1970-01-01</BirthDate>
                  </Age>
                  <Name>
                     <Surname>Apellidosix</Surname>
                     <Given>Adulto</Given>
                     <Title>MR</Title>
                  </Name>
                  <Contacts>
                     <Contact>
                        <EmailContact>
                           <Address>foo@bar.com</Address>
                        </EmailContact>
                        <PhoneContact>
                           <Number>666666666</Number>
                        </PhoneContact>
                     </Contact>
                  </Contacts>
                  <PassengerIDInfo>
                     <FOID>
                        <Type>NI</Type>
                        <ID>12345678Z</ID>
                     </FOID>
                  </PassengerIDInfo>
                  <AdditionalRoles PrimaryContactInd="true"/>
               </Passenger>
               <Passenger ObjectKey="ADULT_03">
                  <PTC>ADT</PTC>
                  <Age>
                     <BirthDate>1970-01-01</BirthDate>
                  </Age>
                  <Name>
                     <Surname>Apellidothree</Surname>
                     <Given>Adulto</Given>
                     <Title>MR</Title>
                  </Name>
                  <Contacts>
                     <Contact>
                        <EmailContact>
                           <Address>foo@bar.com</Address>
                        </EmailContact>
                        <PhoneContact>
                           <Number>666666666</Number>
                        </PhoneContact>
                     </Contact>
                  </Contacts>
                  <PassengerIDInfo>
                     <FOID>
                        <Type>NI</Type>
                        <ID>12345678Z</ID>
                     </FOID>
                  </PassengerIDInfo>
                  <AdditionalRoles PrimaryContactInd="true"/>
               </Passenger>
               <Passenger ObjectKey="ADULT_09">
                  <PTC>ADT</PTC>
                  <Age>
                     <BirthDate>1970-01-01</BirthDate>
                  </Age>
                  <Name>
                     <Surname>Appelidonine</Surname>
                     <Given>Adulto</Given>
                     <Title>MR</Title>
                  </Name>
                  <Contacts>
                     <Contact>
                        <EmailContact>
                           <Address>foo@bar.com</Address>
                        </EmailContact>
                        <PhoneContact>
                           <Number>666666666</Number>
                        </PhoneContact>
                     </Contact>
                  </Contacts>
                  <PassengerIDInfo>
                     <FOID>
                        <Type>NI</Type>
                        <ID>12345678Z</ID>
                     </FOID>
                  </PassengerIDInfo>
                  <AdditionalRoles PrimaryContactInd="true"/>
               </Passenger>
               <Passenger ObjectKey="ADULT_02">
                  <PTC>ADT</PTC>
                  <Age>
                     <BirthDate>1970-01-01</BirthDate>
                  </Age>
                  <Name>
                     <Surname>Dos</Surname>
                     <Given>Adulto</Given>
                     <Title>MR</Title>
                  </Name>
                  <Contacts>
                     <Contact>
                        <EmailContact>
                           <Address>foo@bar.com</Address>
                        </EmailContact>
                        <PhoneContact>
                           <Number>666666666</Number>
                        </PhoneContact>
                     </Contact>
                  </Contacts>
                  <PassengerIDInfo>
                     <FOID>
                        <Type>NI</Type>
                        <ID>12345678Z</ID>
                     </FOID>
                  </PassengerIDInfo>
                  <AdditionalRoles PrimaryContactInd="true"/>
               </Passenger>
            </Passengers>
            <Order>
               <OrderID Owner="IB">IB7210992ce21e44b0979ab5816c8215c7</OrderID>
               <OrderItems>
                  <OrderItem>
                     <OrderItemID Owner="IB">IB7210992ce21e44b0979ab5816c8215c7_01</OrderItemID>
                  </OrderItem>
               </OrderItems>
            </Order>
         </Response>
      </OrderViewRS>
   </soap:Body>
</soap:Envelope>