<soapenv:Envelope xmlns:soapenv="http://schemas.xmlsoap.org/soap/envelope/" xmlns="http://www.iata.org/IATA/EDIST">
	<soapenv:Header/>
	<soapenv:Body>
		<OrderCreateRQ Version="3.001" PrimaryLangID="es">
			<PointOfSale>
				<Location>
					<CountryCode>ES</CountryCode>
				</Location>
			</PointOfSale>
			<Document>
				<ReferenceVersion>IATA2016.2</ReferenceVersion>
			</Document>
			<Party>
				<Sender>
					<TravelAgencySender>
						<Name>AgencyName</Name>
						<Contacts>
							<Contact>
								<EmailContact>
									<Address>AgencyMail@xxx.com</Address>
								</EmailContact>
								<PhoneContact>
									<Application>MOBILE</Application>
									<Number>624545242</Number>
								</PhoneContact>
								<Name>
									<Surname>AgencySurname</Surname>
									<Given>AgencyName</Given>
								</Name>
							</Contact>
						</Contacts>
						<IATA_Number>XXXXXXXX</IATA_Number>
						<AgencyID>XXXXXXXX</AgencyID>
					</TravelAgencySender>
				</Sender>
			</Party>
			<Query>
				<Passengers>
					<Passenger ObjectKey="ADULT_01">
						<PTC>ADT</PTC>
						<Age>
							<BirthDate>1970-01-01</BirthDate>
						</Age>
						<Name>
							<Surname>Uno</Surname>
							<Given>Adulto</Given>
						</Name>
						<Contacts>
							<Contact>
								<PhoneContact>
									<Number>666666666</Number>
								</PhoneContact>
							</Contact>
							<Contact>
								<EmailContact>
									<Address>foo@bar.com</Address>
								</EmailContact>
							</Contact>
						</Contacts>
						<PassengerIDInfo>
							<FOID>
								<Type>NI</Type>
								<ID>12345678Z</ID>
							</FOID>
						</PassengerIDInfo>
					</Passenger>
					<Passenger ObjectKey="CHILD_01">
						<PTC>CHD</PTC>
						<Age>
							<BirthDate>2013-01-01</BirthDate>
						</Age>
						<Name>
							<Surname>Uno</Surname>
							<Given>Ninio</Given>
						</Name>
						<Contacts>
							<Contact>
								<PhoneContact>
									<Number>666666666</Number>
								</PhoneContact>
							</Contact>
							<Contact>
								<EmailContact>
									<Address>foo@bar.com</Address>
								</EmailContact>
							</Contact>
						</Contacts>
						<PassengerIDInfo>
							<FOID>
								<Type>NI</Type>
								<ID>12345678Z</ID>
							</FOID>
						</PassengerIDInfo>
					</Passenger>
					<Passenger ObjectKey="INFANT_01">
						<PTC>INF</PTC>
						<Age>
							<BirthDate>2017-01-02</BirthDate>
						</Age>
						<Name>
							<Surname>Bebe</Surname>
							<Given>Bebe</Given>
						</Name>
						<Contacts>
							<Contact>
								<PhoneContact>
									<Number>666666666</Number>
								</PhoneContact>
							</Contact>
							<Contact>
								<EmailContact>
									<Address>foo@bar.com</Address>
								</EmailContact>
							</Contact>
						</Contacts>
						<PassengerIDInfo>
							<FOID>
								<Type>NI</Type>
								<ID>12345678Z</ID>
							</FOID>
						</PassengerIDInfo>
					</Passenger>
				</Passengers>
				<OrderItems>
					<ShoppingResponse>
						<Owner>IB</Owner>
						<ResponseID>Qm9va2luZ0AxNTIzNjExMzczMDc1LXNIYmVT</ResponseID>
						<Offers>
							<Offer>
								<OfferID Owner="IB">IBb1b7c6d09df042a694b5cb5df053bc13</OfferID>
								<OfferItems>
									<OfferItem>
										<OfferItemID Owner="IB">IBb1b7c6d09df042a694b5cb5df053bc13_01</OfferItemID>
										<Passengers>
											<PassengerReference>ADULT_01</PassengerReference>
										</Passengers>
									</OfferItem>
									<OfferItem>
										<OfferItemID Owner="IB">IBb1b7c6d09df042a694b5cb5df053bc13_02</OfferItemID>
										<Passengers>
											<PassengerReference>CHILD_01</PassengerReference>
										</Passengers>
									</OfferItem>
									<OfferItem>
										<OfferItemID Owner="IB">IBb1b7c6d09df042a694b5cb5df053bc13_03</OfferItemID>
										<Passengers>
											<PassengerReference>INFANT_01</PassengerReference>
										</Passengers>
									</OfferItem>
								</OfferItems>
							</Offer>
						</Offers>
					</ShoppingResponse>
				</OrderItems>
				<Payments>
					<Payment>
						<Method>
							<Cash/>
						</Method>
						<Amount Code="EUR">546.29</Amount>
						<Payer>
							<Name>
								<Surname>Perez Perez</Surname>
								<Given>Pepe</Given>
							</Name>
							<Contacts>
								<Contact/>
								<Contact>
									<EmailContact>
										<Address/>
									</EmailContact>
								</Contact>
							</Contacts>
						</Payer>
					</Payment>
				</Payments>
				<Metadata>
					<Other>
						<OtherMetadata>
							<CurrencyMetadatas>
								<CurrencyMetadata MetadataKey="EUR">
									<Decimals>2</Decimals>
								</CurrencyMetadata>
							</CurrencyMetadatas>
						</OtherMetadata>
					</Other>
				</Metadata>
			</Query>
		</OrderCreateRQ>
	</soapenv:Body>
</soapenv:Envelope>