<soapenv:Envelope xmlns:soapenv="http://schemas.xmlsoap.org/soap/envelope/" xmlns="http://www.iata.org/IATA/EDIST">
   <soapenv:Header/>
   <soapenv:Body>
      <OrderRetrieveRQ Version="3.0001" PrimaryLangID="es">
         <PointOfSale>
            <Location>
               <CountryCode>ES</CountryCode>
            </Location>
         </PointOfSale>
         <Document>
            <ReferenceVersion>IATA2016.2</ReferenceVersion>
         </Document>
         			<Party>
                <Sender>
                    <TravelAgencySender>
                        <Name>AgencyName</Name>
                        <Contacts>
                            <Contact>
                                <EmailContact>
                                    <Address>AgencyMail@xxx.com</Address>
                                </EmailContact>
                                <PhoneContact>
                                    <Application>MOBILE</Application>
                                    <Number>+624545242</Number>
                                </PhoneContact>
                                <Name>
                                    <Surname>Perez</Surname>
                                    <Given>Pepe</Given>
                                </Name>
                            </Contact>
                        </Contacts>
                        <IATA_Number>XXXXXXXX</IATA_Number>
                        <AgencyID>XXXXXXXX</AgencyID>
                    </TravelAgencySender>
                </Sender>
            </Party>
         <Query>
            <Filters>
               <OrderID Owner="IB">IB3df3e9166e934ab8b20897d933581af3</OrderID>
            </Filters>
         </Query>
      </OrderRetrieveRQ>
   </soapenv:Body>
</soapenv:Envelope>