<soapenv:Envelope xmlns:soapenv="http://schemas.xmlsoap.org/soap/envelope/">
	<soapenv:Header/>
	<soapenv:Body>
		<SeatAvailabilityRQ Version="2.0" PrimaryLangID="es" xmlns="http://www.iata.org/IATA/EDIST">
			<PointOfSale>
				<Location>
					<CountryCode>ES</CountryCode>
				</Location>
			</PointOfSale>
			<Document>
				<ReferenceVersion>1.0</ReferenceVersion>
			</Document>
			<Party>
				<Sender>
					<TravelAgencySender>
						<Name>AgencyName</Name>
						<Contacts>
							<Contact>
								<EmailContact>
									<Address>AgencyMail@xxx.com</Address>
								</EmailContact>
								<PhoneContact>
									<Application>MOBILE</Application>
									<Number>624545242</Number>
								</PhoneContact>
								<Name>
									<Surname>AgencySurname</Surname>
									<Given>AgencyName</Given>
								</Name>
							</Contact>
						</Contacts>
						<IATA_Number>XXXXXXXX</IATA_Number>
						<AgencyID>XXXXXXXX</AgencyID>
					</TravelAgencySender>
				</Sender>
			</Party>
			<Query>
				<OrderID Owner="IB">IBb1b7c6d09df042a694b5cb5df053bc13</OrderID>
			</Query>
			<Metadata>
				<Other>
					<OtherMetadata>
						<CurrencyMetadatas>
							<CurrencyMetadata MetadataKey="EUR">
								<Decimals>2</Decimals>
							</CurrencyMetadata>
						</CurrencyMetadatas>
					</OtherMetadata>
				</Other>
			</Metadata>
		</SeatAvailabilityRQ>
	</soapenv:Body>
</soapenv:Envelope>